<svg version="1.1" xmlns="http://www.w3.org/2000/svg" xmlns:xlink="http://www.w3.org/1999/xlink" x="0px" y="0px" width="384px"
	 height="445px" viewBox="0 0 384 445" style="enable-background:new 0 0 384 445;" xml:space="preserve">
<style type="text/css">
	.st0{fill:#020203;}
</style>
<defs>
</defs>
<g>
	<rect x="0" y="429" class="st0" width="98" height="16"/>
	<g>
		<path class="st0" d="M17.6,35.31H44V0h17.6v88H44V52.91H17.6V88H0V0h17.6V35.31z"/>
	</g>
	<g>
		<path class="st0" d="M44,202.8H17.6v17.6h35.2V238H0v-88h52.8v17.6H17.6v17.6H44V202.8z"/>
	</g>
	<g>
		<path class="st0" d="M145.2,196.86L110,150h22l22,29.26L176,150h22.66l-35.86,46.97V238h-17.6V196.86z"/>
	</g>
	<g>
		<path class="st0" d="M18.6,303h17.6v52.8c0,4.84-0.92,9.41-2.75,13.7c-1.83,4.29-4.34,8.03-7.54,11.22s-6.93,5.7-11.22,7.54
			C10.4,390.08,5.84,391,1,391v-17.6c2.42,0,4.69-0.46,6.82-1.38c2.13-0.92,4-2.18,5.61-3.79c1.61-1.61,2.88-3.48,3.79-5.61
			c0.92-2.13,1.38-4.4,1.38-6.82V303z"/>
	</g>
	<g>
		<path class="st0" d="M109.1,347c0-6.09,1.15-11.81,3.46-17.16c2.31-5.35,5.45-10.01,9.41-13.97s8.62-7.1,13.97-9.41
			c5.35-2.31,11.07-3.46,17.16-3.46c6.09,0,11.81,1.15,17.16,3.46c5.35,2.31,10.01,5.45,13.97,9.41s7.09,8.62,9.41,13.97
			c2.31,5.35,3.46,11.07,3.46,17.16c0,6.09-1.16,11.81-3.46,17.16c-2.31,5.35-5.45,10.01-9.41,13.97s-8.62,7.1-13.97,9.41
			c-5.35,2.31-11.07,3.46-17.16,3.46c-6.09,0-11.81-1.15-17.16-3.46c-5.35-2.31-10.01-5.45-13.97-9.41s-7.1-8.62-9.41-13.97
			C110.25,358.81,109.1,353.09,109.1,347z M126.7,347c0,3.67,0.7,7.1,2.09,10.29c1.39,3.19,3.28,5.98,5.67,8.36
			c2.38,2.38,5.17,4.27,8.36,5.67c3.19,1.39,6.62,2.09,10.29,2.09c3.59,0,7-0.7,10.23-2.09c3.23-1.39,6.03-3.28,8.41-5.67
			c2.38-2.38,4.27-5.17,5.67-8.36c1.39-3.19,2.09-6.62,2.09-10.29c0-3.59-0.7-7-2.09-10.23c-1.39-3.23-3.28-6.03-5.67-8.42
			c-2.38-2.38-5.19-4.27-8.41-5.67c-3.23-1.39-6.64-2.09-10.23-2.09c-3.67,0-7.09,0.7-10.29,2.09c-3.19,1.39-5.98,3.28-8.36,5.67
			c-2.38,2.38-4.27,5.19-5.67,8.42C127.4,340,126.7,343.41,126.7,347z"/>
	</g>
	<g>
		<path class="st0" d="M296,355.8h-26.4v17.6h35.2V391H252v-88h52.8v17.6h-35.2v17.6H296V355.8z"/>
		<path class="st0" d="M367.5,355.8l-1.1-52.8H384l-1.1,52.8H367.5z M367.5,391v-17.6h15.4V391H367.5z"/>
	</g>
</g>
</svg>
